{
    "entryFile": "./app.ts",
    "noImplicitAdditionalProperties": "throw-on-extras",
    "controllerPathGlobs": ["./**/*.controller.ts"],
    "spec": {
        "outputDirectory": "./../../docs",
        "specVersion": 3,
        "spec": {
            "swagger": "2.0"
        }
    },
    "routes": {
        "routesDir": "."
    }
}